^C:\USERS\משתמש\DESKTOP\מגשימים\C++\9\LESSON-9\TREES\TREES\DEBUG\BSNODE.OBJ|C:\USERS\משתמש\DESKTOP\מגשימים\C++\9\LESSON-9\TREES\TREES\DEBUG\MAIN.OBJ
/OUT:"C:\USERS\משתמש\DESKTOP\מגשימים\C++\9\LESSON-9\TREES\DEBUG\TREES.EXE" /INCREMENTAL /NOLOGO PRINTTREETOFILE.LIB KERNEL32.LIB USER32.LIB GDI32.LIB WINSPOOL.LIB COMDLG32.LIB ADVAPI32.LIB SHELL32.LIB OLE32.LIB OLEAUT32.LIB UUID.LIB ODBC32.LIB ODBCCP32.LIB /MANIFEST /MANIFESTUAC:"level='asInvoker' uiAccess='false'" /manifest:embed /DEBUG:FASTLINK /PDB:"C:\USERS\משתמש\DESKTOP\מגשימים\C++\9\LESSON-9\TREES\DEBUG\TREES.PDB" /SUBSYSTEM:CONSOLE /TLBID:1 /DYNAMICBASE /NXCOMPAT /IMPLIB:"C:\USERS\משתמש\DESKTOP\מגשימים\C++\9\LESSON-9\TREES\DEBUG\TREES.LIB" /MACHINE:X86 DEBUG\BSNODE.OBJ
DEBUG\MAIN.OBJ
